Examples of Workshop Analyses
…
# this is equilvalent to:
# tidy_data_1 <- list(
#   demos  = read_csv(data_files[1]),
#   scores = read_csv(data_files[2]),
#   comb   = read_csv(data_files[3])
# )

Note that packages in the tidyverse tend to be chatty. If you dont specify something (and it has to make a guess), it will probably tell you what it guessed. Here you can specify the column types directly using the col_types argument. If you dont specify them, read_csv will try to guess whether theyre double (col_double), character (col_character), logical (col_logical) or something else. Moreover, read_csv will never convert character strings to factors unless you specify this manually and will always convert the data into a tibble.

print(tidy_data_1[[1]])

## # A tibble: 545 x 5
##       X1 guid       data_level           data_industry     data_function        
##    <dbl> <chr>      <chr>                <chr>             <chr>                
##  1 23456 dXIOWn1q3p Individual Contribu Communications    Human Resources      
##  2 23457 fI8ZSae2QY Supervisor           Communications    Sales                
##  3 23458 2laJn7v5KY Individual Contribu Retail            Administrative Servi
##  4 23459 SwnvIM48C6 Individual Contribu Healthcare        Operations           
##  5 23460 3Z4PW7HeQj Individual Contribu Consumer Goods    Administrative Servi
##  6 23461 7mTQBMsyzZ Individual Contribu Consumer Goods    Administrative Servi
##  7 23462 luxwZnq6oP Individual Contribu Healthcare        Marketing            
##  8 23463 sjN92UPinR Functional Leader    Financial Servic Sales                
##  9 23464 JsE8oj62vb Individual Contribu Financial Servic General Management   
## 10 23465 sxKzkhN4eR Individual Contribu Consumer Goods    Sales                
## #  with 535 more rows
…
# this is equilvalent to:
# tidy_data_2 <- list(
#   demos  = vroom::vroom(data_files[1], col_select = -1),
#   scores = vroom::vroom(data_files[2], col_select = -1),
#   comb   = vroom::vroom(data_files[3], col_select = -1)
# )

Note that the data looks the same as it did before.

print(tidy_data_2[[1]])

## # A tibble: 545 x 4
##    guid       data_level             data_industry      data_function          
##    <chr>      <chr>                  <chr>              <chr>                  
##  1 dXIOWn1q3p Individual Contributor Communications     Human Resources        
##  2 fI8ZSae2QY Supervisor             Communications     Sales                  
##  3 2laJn7v5KY Individual Contributor Retail             Administrative Services
##  4 SwnvIM48C6 Individual Contributor Healthcare         Operations             
##  5 3Z4PW7HeQj Individual Contributor Consumer Goods     Administrative Services
##  6 7mTQBMsyzZ Individual Contributor Consumer Goods     Administrative Services
##  7 luxwZnq6oP Individual Contributor Healthcare         Marketing              
##  8 sjN92UPinR Functional Leader      Financial Services Sales                  
##  9 JsE8oj62vb Individual Contributor Financial Services General Management     
## 10 sxKzkhN4eR Individual Contributor Consumer Goods     Sales                  
## #  with 535 more rows

Lets save these datasets as separate objects in R to be used for further analysis.

tidy_demos  <- pluck(tidy_data_1, "demos")
tidy_scores <- pluck(tidy_data_1, "scores")
tidy_comb_1 <- pluck(tidy_data_1, "comb")

Note that we have three sets of data.

tidy_demos are demographic data for some of the unique IDs in tidy_scores.

print(tidy_demos)

## # A tibble: 545 x 4
##    guid       data_level             data_industry      data_function          
##    <chr>      <chr>                  <chr>              <chr>                  
##  1 dXIOWn1q3p Individual Contributor Communications     Human Resources        
##  2 fI8ZSae2QY Supervisor             Communications     Sales                  
##  3 2laJn7v5KY Individual Contributor Retail             Administrative Services
##  4 SwnvIM48C6 Individual Contributor Healthcare         Operations             
##  5 3Z4PW7HeQj Individual Contributor Consumer Goods     Administrative Services
##  6 7mTQBMsyzZ Individual Contributor Consumer Goods     Administrative Services
##  7 luxwZnq6oP Individual Contributor Healthcare         Marketing              
##  8 sjN92UPinR Functional Leader      Financial Services Sales                  
##  9 JsE8oj62vb Individual Contributor Financial Services General Management     
## 10 sxKzkhN4eR Individual Contributor Consumer Goods     Sales                  
## #  with 535 more rows

tidy_scores are scores on each of the variables for IDs in tidy_demos.

print(tidy_scores)

## # A tibble: 545 x 11
##    guid        X1     X2       X3      X4     X5     X6      X7      X8      X9
##    <chr>    <dbl>  <dbl>    <dbl>   <dbl>  <dbl>  <dbl>   <dbl>   <dbl>   <dbl>
##  1 dXIO  0.715    0.290  0.573   -0.794  -1.36  -0.573  0.228  -0.0798  0.740 
##  2 fI8Z  1.17     0.131 -0.910   -0.475  -0.836 -0.317 -0.0124  0.529   1.74  
##  3 2laJ -1.46     0.169  0.677   -0.818   2.39  -0.609 -0.461  -0.0579  0.506 
##  4 Swnv  1.42     0.211  1.53     2.29    0.126  0.681  0.486   0.587   0.116 
##  5 3Z4P  0.454   -1.31   0.946   -0.357   1.22   0.293  1.25    2.18    1.78  
##  6 7mTQ  0.924    0.816  1.33     0.905  -0.734 -0.419  0.364  -0.292   1.07  
##  7 luxw  1.02     0.717  0.201    1.40    0.256  0.818  1.66    1.09   -1.02  
##  8 sjN9 -0.734   -0.244 -0.760   -0.865  -0.960  0.266 -0.201  -0.102  -0.0861
##  9 JsE8 -1.28    -0.743  0.00103 -1.13   -0.545 -0.260 -1.41   -2.45   -0.863 
## 10 sxKz -0.00982  0.793 -0.472   -0.0497 -0.113 -0.194  1.84   -0.462   0.181 
## #  with 535 more rows, and 1 more variable: X10 <dbl>

tidy_comb_1 are combination of data (demos and scores combined) for IDs not in tidy_demos or tidy_scores.

print(tidy_comb_1)

## # A tibble: 250 x 14
##    guid  data_level data_industry data_function     X1      X2       X3      X4
##    <chr> <chr>      <chr>         <chr>          <dbl>   <dbl>    <dbl>   <dbl>
##  1 R5z6 Individua Financial Se General Mana  1.91  -1.08    0.626   -0.255 
##  2 V14B Individua Communicatio Human Resour  0.611  1.20   -0.0607   0.974 
##  3 hT6t Supervisor Communicatio General Mana  1.69  -0.0915  1.90     0.106 
##  4 9geR Functiona Communicatio Operations     0.666  0.0865  0.781    0.0952
##  5 JeN4 Individua Retail        Operations    -1.23  -0.720  -0.461    0.396 
##  6 WqQg Supervisor Communicatio Operations    -0.586 -0.337   0.498   -0.757 
##  7 rKo3 Supervisor Consumer Goo Operations     0.503  0.552   0.599    0.983 
##  8 OQ6w Mid-level Healthcare    Administrati -0.575  0.109  -0.00838 -0.605 
##  9 6qBT Functiona Communicatio Marketing      0.793 -1.26   -0.650    0.208 
## 10 qirL Supervisor Retail        Marketing      2.51  -0.988  -0.209    1.09  
## #  with 240 more rows, and 6 more variables: X5 <dbl>, X6 <dbl>, X7 <dbl>,
## #   X8 <dbl>, X9 <dbl>, X10 <dbl>
…
